synchronous fifo/FIFO-1/SYSTEM-VERILOG/dump.vcd
$date
	Tue Feb 18 01:03:32 2025
$end

$version
	Synopsys VCS version U-2023.03-SP2_Full64
$end

$timescale
	1ns
$end

$comment Csum: 1 1afbccf9540a809c $end


$scope module $unit $end
$upscope $end


$scope module tbench_top $end
$var reg 1 ! clk $end
$var reg 1 " reset $end

$scope module vif $end
$var reg 1 # clk $end
$var reg 1 $ rst_n $end
$var reg 1 % w_en $end
$var reg 1 & r_en $end
$var reg 32 ' data_in [31:0] $end
$var reg 32 ( data_out [31:0] $end
$var reg 1 ) full $end
$var reg 1 * empty $end
$upscope $end


$scope module s_fifo $end
$var wire 1 + clk $end
$var wire 1 , rst_n $end
$var wire 1 - w_en $end
$var wire 1 . r_en $end
$var wire 32 / data_in [31:0] $end
$var reg 32 0 data_out [31:0] $end
$var wire 1 1 full $end
$var wire 1 2 empty $end
$var reg 5 3 w_ptr [4:0] $end
$var reg 5 4 r_ptr [4:0] $end
$upscope $end

$upscope $end

$enddefinitions $end

#0
$dumpvars
0!
0"
b00000000000000000000000000000000 (
bxxxxxxxxxxxxxxxxxxxxxxxxxxxxxxxx '
b00000000000000000000000000000000 0
b00000 4
b00000 3
bxxxxxxxxxxxxxxxxxxxxxxxxxxxxxxxx /
0+
12
01
x.
0,
x-
0#
0$
1*
0)
x&
x%
$end
#5
1!
1#
1+
1"
1$
1,
0%
0-
0&
0.
#10
0!
0#
0+
#15
1!
1#
1+
1%
1-
b00010110111001100100010110000001 '
b00010110111001100100010110000001 /
#20
0!
0#
0+
#25
1!
1#
1+
b00001 3
02
0*
0%
0-
#30
0!
0#
0+
#35
1!
1#
1+
#40
0!
0#
0+
#45
1!
1#
1+
1&
1.
#50
0!
0#
0+
#55
1!
1#
1+
b00010110111001100100010110000001 0
b00010110111001100100010110000001 (
b00001 4
12
1*
0&
0.
#60
0!
0#
0+
#65
1!
1#
1+
1%
1-
b01010110010101110100111001001001 '
b01010110010101110100111001001001 /
#70
0!
0#
0+
#75
1!
1#
1+
b00010 3
02
0*
0%
0-
#80
0!
0#
0+
#85
1!
1#
1+
#90
0!
0#
0+
#95
1!
1#
1+
1&
1.
#100
0!
0#
0+
#105
1!
1#
1+
b01010110010101110100111001001001 0
b01010110010101110100111001001001 (
b00010 4
12
1*
0&
0.
#110
0!
0#
0+
#115
1!
1#
1+
1%
1-
b10110110111110111100101111001101 '
b10110110111110111100101111001101 /
#120
0!
0#
0+
#125
1!
1#
1+
b00011 3
02
0*
0%
0-
#130
0!
0#
0+
#135
1!
1#
1+
#140
0!
0#
0+
#145
1!
1#
1+
1&
1.
#150
0!
0#
0+
#155
1!
1#
1+
b10110110111110111100101111001101 0
b10110110111110111100101111001101 (
b00011 4
12
1*
0&
0.
#160
0!
0#
0+
#165
1!
1#
1+
1%
1-
b01110001110100110001001101111110 '
b01110001110100110001001101111110 /
#170
0!
0#
0+
#175
1!
1#
1+
b00100 3
02
0*
0%
0-
#180
0!
0#
0+
#185
1!
1#
1+
#190
0!
0#
0+
#195
1!
1#
1+
1&
1.
#200
0!
0#
0+
#205
1!
1#
1+
b01110001110100110001001101111110 0
b01110001110100110001001101111110 (
b00100 4
12
1*
0&
0.
#210
0!
0#
0+
#215
1!
1#
1+
1%
1-
b11111001011101111110010110010011 '
b11111001011101111110010110010011 /
#220
0!
0#
0+
#225
1!
1#
1+
b00101 3
02
0*
0%
0-
#230
0!
0#
0+
#235
1!
1#
1+
#240
0!
0#
0+
#245
1!
1#
1+
1&
1.
#250
0!
0#
0+
#255
1!
1#
1+
b11111001011101111110010110010011 0
b11111001011101111110010110010011 (
b00101 4
12
1*
0&
0.
